{
	"$schema": "./proto.schema.json",

	"instance_get_shm_fd": {
		"out_handles": {"type": "xrt_shmem_handle_t"}
	},

	"instance_describe_client": {
		"in": [
			{"name": "desc", "type": "struct ipc_client_description"}
		]
	},

	"system_get_properties": {
		"out": [
			{"name": "properties", "type": "struct xrt_system_properties"}
		]
	},

	"system_get_client_info": {
		"in": [
			{"name": "id", "type": "uint32_t"}
		],
		"out": [
			{"name": "ias", "type": "struct ipc_app_state"}
		]
	},

	"system_get_clients": {
		"out": [
			{"name": "clients", "type": "struct ipc_client_list"}
		]
	},

	"system_set_primary_client": {
		"in": [
			{"name": "id", "type": "uint32_t"}
		]
	},

	"system_set_focused_client": {
		"in": [
			{"name": "id", "type": "uint32_t"}
		]
	},

	"system_toggle_io_client": {
		"in": [
			{"name": "id", "type": "uint32_t"}
		]
	},

	"system_toggle_io_device": {
		"in": [
			{"name": "id", "type": "uint32_t"}
		]
	},

	"system_devices_get_roles": {
		"out": [
			{"name": "system_roles", "type": "struct xrt_system_roles"}
		]
	},

	"system_compositor_get_info": {
		"out": [
			{"name": "info", "type": "struct xrt_system_compositor_info"}
		]
	},

	"session_create": {
		"in": [
			{"name": "xsi", "type": "struct xrt_session_info"},
			{"name": "create_native_compositor", "type": "bool"}
		]
	},

	"session_poll_events": {
		"out": [
			{"name": "event", "type": "union xrt_session_event"}
		]
	},

	"session_begin": {},

	"session_end": {},

	"session_destroy": {},

	"space_create_semantic_ids": {
		"out": [
			{"name": "root_id", "type": "uint32_t"},
			{"name": "view_id", "type": "uint32_t"},
			{"name": "local_id", "type": "uint32_t"},
			{"name": "local_floor_id", "type": "uint32_t"},
			{"name": "stage_id", "type": "uint32_t"},
			{"name": "unbounded_id", "type": "uint32_t"}
		]
	},

	"space_create_offset": {
		"in": [
			{"name": "parent_id", "type": "uint32_t"},
			{"name": "offset", "type": "struct xrt_pose"}
		],
		"out": [
			{"name": "space_id", "type": "uint32_t"}
		]
	},

	"space_create_pose": {
		"in": [
			{"name": "xdev_id", "type": "uint32_t"},
			{"name": "name", "type": "enum xrt_input_name"}
		],
		"out": [
			{"name": "space_id", "type": "uint32_t"}
		]
	},

	"space_locate_space": {
		"in": [
			{"name": "base_space_id", "type": "uint32_t"},
			{"name": "base_offset", "type": "struct xrt_pose"},
			{"name": "at_timestamp", "type": "uint64_t"},
			{"name": "space_id", "type": "uint32_t"},
			{"name": "offset", "type": "struct xrt_pose"}
		],
		"out": [
			{"name": "relation", "type": "struct xrt_space_relation"}
		]
	},

	"space_locate_device": {
		"in": [
			{"name": "base_space_id", "type": "uint32_t"},
			{"name": "base_offset", "type": "struct xrt_pose"},
			{"name": "at_timestamp", "type": "uint64_t"},
			{"name": "xdev_id", "type": "uint32_t"}
		],
		"out": [
			{"name": "relation", "type": "struct xrt_space_relation"}
		]
	},

	"space_destroy": {
		"in": [
			{"name": "space_id", "type": "uint32_t"}
		]
	},

	"space_mark_ref_space_in_use": {
		"in": [
			{"name": "type", "type": "enum xrt_reference_space_type"}
		]
	},

	"space_unmark_ref_space_in_use": {
		"in": [
			{"name": "type", "type": "enum xrt_reference_space_type"}
		]
	},

	"space_recenter_local_spaces": {
	},

	"compositor_get_info": {
		"out": [
			{"name": "info", "type": "struct xrt_compositor_info"}
		]
	},

	"compositor_predict_frame": {
		"out": [
			{"name": "frame_id", "type": "int64_t"},
			{"name": "wake_up_time", "type": "uint64_t"},
			{"name": "predicted_display_time", "type": "uint64_t"},
			{"name": "predicted_display_period", "type": "uint64_t"}
		]
	},

	"compositor_wait_woke": {
		"in": [
			{"name": "frame_id", "type": "int64_t"}
		]
	},

	"compositor_begin_frame": {
		"in": [
			{"name": "frame_id", "type": "int64_t"}
		]
	},

	"compositor_discard_frame": {
		"in": [
			{"name": "frame_id", "type": "int64_t"}
		]
	},

	"compositor_layer_sync": {
		"in": [
			{"name": "slot_id", "type": "uint32_t"}
		],
		"in_handles": {"type": "xrt_graphics_sync_handle_t"},
		"out": [
			{"name": "free_slot_id", "type": "uint32_t"}
		]
	},

	"compositor_layer_sync_with_semaphore": {
		"in": [
			{"name": "slot_id", "type": "uint32_t"},
			{"name": "semaphore_id", "type": "uint32_t"},
			{"name": "semaphore_value", "type": "uint64_t"}
		],
		"out": [
			{"name": "free_slot_id", "type": "uint32_t"}
		]
	},

	"compositor_set_performance_level": {
		"in": [
			{"name": "domain", "type": "enum xrt_perf_domain"},
			{"name": "level", "type": "enum xrt_perf_set_level"}
		]
	},

	"compositor_set_thread_hint": {
		"in": [
			{"name": "hint", "type": "enum xrt_thread_hint"},
			{"name": "thread_id", "type": "uint32_t"}
		]
	},

	"compositor_get_display_refresh_rate": {
		"out": [
			{"name": "out_display_refresh_rate_hz", "type": "float"}
		]
	},

	"compositor_request_display_refresh_rate": {
		"in": [
			{"name": "display_refresh_rate_hz", "type": "float"}
		]
	},

	"swapchain_get_properties": {
		"in": [
			{"name": "info", "type": "struct xrt_swapchain_create_info"}
		],
		"out": [
			{"name": "xsccp", "type": "struct xrt_swapchain_create_properties"}
		]
	},

	"swapchain_create": {
		"in": [
			{"name": "info", "type": "struct xrt_swapchain_create_info"}
		],
		"out": [
			{"name": "id", "type": "uint32_t"},
			{"name": "image_count", "type": "uint32_t"},
			{"name": "size", "type": "uint64_t"},
			{"name": "use_dedicated_allocation", "type": "bool"}
		],
		"out_handles": {"type": "xrt_graphics_buffer_handle_t"}
	},

	"compositor_create_passthrough": {
		"in": [
			{"name": "info", "type": "struct xrt_passthrough_create_info"}
		]
	},

	"compositor_create_passthrough_layer": {
		"in": [
			{"name": "info", "type": "struct xrt_passthrough_layer_create_info"}
		]
	},

	"compositor_destroy_passthrough": {},

	"swapchain_import": {
		"in": [
			{"name": "info", "type": "struct xrt_swapchain_create_info"},
			{"name": "args", "type": "struct ipc_arg_swapchain_from_native"}
		],
		"out": [
			{"name": "id", "type": "uint32_t"}
		],
		"in_handles": {"type": "xrt_graphics_buffer_handle_t"}
	},

	"swapchain_wait_image": {
		"in": [
			{"name": "id", "type": "uint32_t"},
			{"name": "timeout_ns", "type": "uint64_t"},
			{"name": "index", "type": "uint32_t"}
		]
	},

	"swapchain_acquire_image": {
		"in": [
			{"name": "id", "type": "uint32_t"}
		],
		"out": [
			{"name": "index", "type": "uint32_t"}
		]
	},

	"swapchain_release_image": {
		"in": [
			{"name": "id", "type": "uint32_t"},
			{"name": "index", "type": "uint32_t"}
		]
	},

	"swapchain_destroy": {
		"in": [
			{"name": "id", "type": "uint32_t"}
		]
	},

	"compositor_semaphore_create": {
		"out": [
			{"name": "id", "type": "uint32_t"}
		],
		"out_handles": {"type": "xrt_graphics_sync_handle_t"}
	},

	"compositor_semaphore_destroy": {
		"in": [
			{"name": "id", "type": "uint32_t"}
		]
	},

	"device_update_input": {
		"in": [
			{"name": "id", "type": "uint32_t"}
		]
	},

	"device_get_tracked_pose": {
		"in": [
			{"name": "id", "type": "uint32_t"},
			{"name": "name", "type": "enum xrt_input_name"},
			{"name": "at_timestamp", "type": "uint64_t"}
		],
		"out": [
			{"name": "relation", "type": "struct xrt_space_relation"}
		]
	},

	"device_get_hand_tracking": {
		"in": [
			{"name": "id", "type": "uint32_t"},
			{"name": "name", "type": "enum xrt_input_name"},
			{"name": "at_timestamp", "type": "uint64_t"}
		],
		"out": [
			{"name": "value", "type": "struct xrt_hand_joint_set"},
			{"name": "timestamp", "type": "uint64_t"}
		]
	},

	"device_get_view_poses": {
		"varlen": true,
		"in": [
			{"name": "id", "type": "uint32_t"},
			{"name": "fallback_eye_relation", "type": "struct xrt_vec3"},
			{"name": "at_timestamp_ns", "type": "uint64_t"},
			{"name": "view_count", "type": "uint32_t"}
		],
		"out": [
			{"name": "head_relation", "type": "struct xrt_space_relation"},
			{"name": "view_count", "type": "uint32_t"}
		]
	},

	"device_get_view_poses_2": {
		"in": [
			{"name": "id", "type": "uint32_t"},
			{"name": "fallback_eye_relation", "type": "struct xrt_vec3"},
			{"name": "at_timestamp_ns", "type": "uint64_t"},
			{"name": "view_count", "type": "uint32_t"}
		],
		"out": [
			{"name": "info", "type": "struct ipc_info_get_view_poses_2"}
		]
	},

	"device_compute_distortion": {
		"in": [
			{"name": "id", "type": "uint32_t"},
			{"name": "view", "type": "uint32_t"},
			{"name": "u", "type": "float"},
			{"name": "v", "type": "float"}
		],
		"out": [
			{"name": "ret", "type": "bool"},
			{"name": "triplet", "type": "struct xrt_uv_triplet"}
		]
	},

	"device_set_output": {
		"in": [
			{"name": "id", "type": "uint32_t"},
			{"name": "name", "type": "enum xrt_output_name"},
			{"name": "value", "type": "union xrt_output_value"}
		]
	},

	"device_get_visibility_mask": {
		"varlen": true,
		"in": [
			{"name": "id", "type": "uint32_t"},
			{"name": "type", "type": "enum xrt_visibility_mask_type"},
			{"name": "view_index", "type": "uint32_t"}
		],
		"out": [
			{"name": "mask_size", "type": "uint32_t"}
		]
	},

	"device_is_form_factor_available": {
		"in": [
			{"name": "id", "type": "uint32_t"},
			{"name": "form_factor", "type": "enum xrt_form_factor"}
		],
		"out": [
			{"name": "available", "type": "bool"}
		]
	},

	"device_get_face_tracking": {
		"in": [
			{"name": "id", "type": "uint32_t"},
			{"name": "facial_expression_type", "type": "enum xrt_input_name"}
		],
		"out": [
			{"name": "value", "type": "struct xrt_facial_expression_set"}
		]
	}

}
